Kmeans_Processador/Kmeans_MemoryInitialize/simulation/qsim/Kmeans_MemoryInitialize.msim.vcd
$comment
	File created using the following command:
		vcd file Kmeans_MemoryInitialize.msim.vcd -direction
$end
$date
	Tue Mar 21 15:41:10 2017
$end
$version
	ModelSim Version 10.5b
$end
$timescale
	1ps
$end

$scope module kmeans_memoryinitialize_vhd_vec_tst $end
$var wire 1 ! addr_Ram [14] $end
$var wire 1 " addr_Ram [13] $end
$var wire 1 # addr_Ram [12] $end
$var wire 1 $ addr_Ram [11] $end
$var wire 1 % addr_Ram [10] $end
$var wire 1 & addr_Ram [9] $end
$var wire 1 ' addr_Ram [8] $end
$var wire 1 ( addr_Ram [7] $end
$var wire 1 ) addr_Ram [6] $end
$var wire 1 * addr_Ram [5] $end
$var wire 1 + addr_Ram [4] $end
$var wire 1 , addr_Ram [3] $end
$var wire 1 - addr_Ram [2] $end
$var wire 1 . addr_Ram [1] $end
$var wire 1 / addr_Ram [0] $end
$var wire 1 0 addr_Rom [14] $end
$var wire 1 1 addr_Rom [13] $end
$var wire 1 2 addr_Rom [12] $end
$var wire 1 3 addr_Rom [11] $end
$var wire 1 4 addr_Rom [10] $end
$var wire 1 5 addr_Rom [9] $end
$var wire 1 6 addr_Rom [8] $end
$var wire 1 7 addr_Rom [7] $end
$var wire 1 8 addr_Rom [6] $end
$var wire 1 9 addr_Rom [5] $end
$var wire 1 : addr_Rom [4] $end
$var wire 1 ; addr_Rom [3] $end
$var wire 1 < addr_Rom [2] $end
$var wire 1 = addr_Rom [1] $end
$var wire 1 > addr_Rom [0] $end
$var wire 1 ? clk $end
$var wire 1 @ en_MemoryInitialize $end
$var wire 1 A initAddr [14] $end
$var wire 1 B initAddr [13] $end
$var wire 1 C initAddr [12] $end
$var wire 1 D initAddr [11] $end
$var wire 1 E initAddr [10] $end
$var wire 1 F initAddr [9] $end
$var wire 1 G initAddr [8] $end
$var wire 1 H initAddr [7] $end
$var wire 1 I initAddr [6] $end
$var wire 1 J initAddr [5] $end
$var wire 1 K initAddr [4] $end
$var wire 1 L initAddr [3] $end
$var wire 1 M initAddr [2] $end
$var wire 1 N initAddr [1] $end
$var wire 1 O initAddr [0] $end
$var wire 1 P next_State [3] $end
$var wire 1 Q next_State [2] $end
$var wire 1 R next_State [1] $end
$var wire 1 S next_State [0] $end
$var wire 1 T nPontos [13] $end
$var wire 1 U nPontos [12] $end
$var wire 1 V nPontos [11] $end
$var wire 1 W nPontos [10] $end
$var wire 1 X nPontos [9] $end
$var wire 1 Y nPontos [8] $end
$var wire 1 Z nPontos [7] $end
$var wire 1 [ nPontos [6] $end
$var wire 1 \ nPontos [5] $end
$var wire 1 ] nPontos [4] $end
$var wire 1 ^ nPontos [3] $end
$var wire 1 _ nPontos [2] $end
$var wire 1 ` nPontos [1] $end
$var wire 1 a nPontos [0] $end
$var wire 1 b nrst $end
$var wire 1 c reg8 [1] $end
$var wire 1 d reg8 [0] $end

$scope module i1 $end
$var wire 1 e gnd $end
$var wire 1 f vcc $end
$var wire 1 g unknown $end
$var wire 1 h devoe $end
$var wire 1 i devclrn $end
$var wire 1 j devpor $end
$var wire 1 k ww_devoe $end
$var wire 1 l ww_devclrn $end
$var wire 1 m ww_devpor $end
$var wire 1 n ww_clk $end
$var wire 1 o ww_nrst $end
$var wire 1 p ww_nPontos [13] $end
$var wire 1 q ww_nPontos [12] $end
$var wire 1 r ww_nPontos [11] $end
$var wire 1 s ww_nPontos [10] $end
$var wire 1 t ww_nPontos [9] $end
$var wire 1 u ww_nPontos [8] $end
$var wire 1 v ww_nPontos [7] $end
$var wire 1 w ww_nPontos [6] $end
$var wire 1 x ww_nPontos [5] $end
$var wire 1 y ww_nPontos [4] $end
$var wire 1 z ww_nPontos [3] $end
$var wire 1 { ww_nPontos [2] $end
$var wire 1 | ww_nPontos [1] $end
$var wire 1 } ww_nPontos [0] $end
$var wire 1 ~ ww_en_MemoryInitialize $end
$var wire 1 !! ww_initAddr [14] $end
$var wire 1 "! ww_initAddr [13] $end
$var wire 1 #! ww_initAddr [12] $end
$var wire 1 $! ww_initAddr [11] $end
$var wire 1 %! ww_initAddr [10] $end
$var wire 1 &! ww_initAddr [9] $end
$var wire 1 '! ww_initAddr [8] $end
$var wire 1 (! ww_initAddr [7] $end
$var wire 1 )! ww_initAddr [6] $end
$var wire 1 *! ww_initAddr [5] $end
$var wire 1 +! ww_initAddr [4] $end
$var wire 1 ,! ww_initAddr [3] $end
$var wire 1 -! ww_initAddr [2] $end
$var wire 1 .! ww_initAddr [1] $end
$var wire 1 /! ww_initAddr [0] $end
$var wire 1 0! ww_reg8 [1] $end
$var wire 1 1! ww_reg8 [0] $end
$var wire 1 2! ww_addr_Rom [14] $end
$var wire 1 3! ww_addr_Rom [13] $end
$var wire 1 4! ww_addr_Rom [12] $end
$var wire 1 5! ww_addr_Rom [11] $end
$var wire 1 6! ww_addr_Rom [10] $end
$var wire 1 7! ww_addr_Rom [9] $end
$var wire 1 8! ww_addr_Rom [8] $end
$var wire 1 9! ww_addr_Rom [7] $end
$var wire 1 :! ww_addr_Rom [6] $end
$var wire 1 ;! ww_addr_Rom [5] $end
$var wire 1 <! ww_addr_Rom [4] $end
$var wire 1 =! ww_addr_Rom [3] $end
$var wire 1 >! ww_addr_Rom [2] $end
$var wire 1 ?! ww_addr_Rom [1] $end
$var wire 1 @! ww_addr_Rom [0] $end
$var wire 1 A! ww_addr_Ram [14] $end
$var wire 1 B! ww_addr_Ram [13] $end
$var wire 1 C! ww_addr_Ram [12] $end
$var wire 1 D! ww_addr_Ram [11] $end
$var wire 1 E! ww_addr_Ram [10] $end
$var wire 1 F! ww_addr_Ram [9] $end
$var wire 1 G! ww_addr_Ram [8] $end
$var wire 1 H! ww_addr_Ram [7] $end
$var wire 1 I! ww_addr_Ram [6] $end
$var wire 1 J! ww_addr_Ram [5] $end
$var wire 1 K! ww_addr_Ram [4] $end
$var wire 1 L! ww_addr_Ram [3] $end
$var wire 1 M! ww_addr_Ram [2] $end
$var wire 1 N! ww_addr_Ram [1] $end
$var wire 1 O! ww_addr_Ram [0] $end
$var wire 1 P! ww_next_State [3] $end
$var wire 1 Q! ww_next_State [2] $end
$var wire 1 R! ww_next_State [1] $end
$var wire 1 S! ww_next_State [0] $end
$var wire 1 T! \clk~inputclkctrl_INCLK_bus\ [3] $end
$var wire 1 U! \clk~inputclkctrl_INCLK_bus\ [2] $end
$var wire 1 V! \clk~inputclkctrl_INCLK_bus\ [1] $end
$var wire 1 W! \clk~inputclkctrl_INCLK_bus\ [0] $end
$var wire 1 X! \nrst~inputclkctrl_INCLK_bus\ [3] $end
$var wire 1 Y! \nrst~inputclkctrl_INCLK_bus\ [2] $end
$var wire 1 Z! \nrst~inputclkctrl_INCLK_bus\ [1] $end
$var wire 1 [! \nrst~inputclkctrl_INCLK_bus\ [0] $end
$var wire 1 \! \addr_Rom[0]~output_o\ $end
$var wire 1 ]! \addr_Rom[1]~output_o\ $end
$var wire 1 ^! \addr_Rom[2]~output_o\ $end
$var wire 1 _! \addr_Rom[3]~output_o\ $end
$var wire 1 `! \addr_Rom[4]~output_o\ $end
$var wire 1 a! \addr_Rom[5]~output_o\ $end
$var wire 1 b! \addr_Rom[6]~output_o\ $end
$var wire 1 c! \addr_Rom[7]~output_o\ $end
$var wire 1 d! \addr_Rom[8]~output_o\ $end
$var wire 1 e! \addr_Rom[9]~output_o\ $end
$var wire 1 f! \addr_Rom[10]~output_o\ $end
$var wire 1 g! \addr_Rom[11]~output_o\ $end
$var wire 1 h! \addr_Rom[12]~output_o\ $end
$var wire 1 i! \addr_Rom[13]~output_o\ $end
$var wire 1 j! \addr_Rom[14]~output_o\ $end
$var wire 1 k! \addr_Ram[0]~output_o\ $end
$var wire 1 l! \addr_Ram[1]~output_o\ $end
$var wire 1 m! \addr_Ram[2]~output_o\ $end
$var wire 1 n! \addr_Ram[3]~output_o\ $end
$var wire 1 o! \addr_Ram[4]~output_o\ $end
$var wire 1 p! \addr_Ram[5]~output_o\ $end
$var wire 1 q! \addr_Ram[6]~output_o\ $end
$var wire 1 r! \addr_Ram[7]~output_o\ $end
$var wire 1 s! \addr_Ram[8]~output_o\ $end
$var wire 1 t! \addr_Ram[9]~output_o\ $end
$var wire 1 u! \addr_Ram[10]~output_o\ $end
$var wire 1 v! \addr_Ram[11]~output_o\ $end
$var wire 1 w! \addr_Ram[12]~output_o\ $end
$var wire 1 x! \addr_Ram[13]~output_o\ $end
$var wire 1 y! \addr_Ram[14]~output_o\ $end
$var wire 1 z! \next_State[0]~output_o\ $end
$var wire 1 {! \next_State[1]~output_o\ $end
$var wire 1 |! \next_State[2]~output_o\ $end
$var wire 1 }! \next_State[3]~output_o\ $end
$var wire 1 ~! \clk~input_o\ $end
$var wire 1 !" \clk~inputclkctrl_outclk\ $end
$var wire 1 "" \initAddr[0]~input_o\ $end
$var wire 1 #" \s_countData[0]~14_combout\ $end
$var wire 1 $" \nrst~input_o\ $end
$var wire 1 %" \nrst~inputclkctrl_outclk\ $end
$var wire 1 &" \nPontos[13]~input_o\ $end
$var wire 1 '" \reg8[0]~input_o\ $end
$var wire 1 (" \reg8[1]~input_o\ $end
$var wire 1 )" \Mult0|mult_core|decoder_node[1][13]~combout\ $end
$var wire 1 *" \Mult0|mult_core|decoder_node[0][13]~combout\ $end
$var wire 1 +" \nPontos[12]~input_o\ $end
$var wire 1 ," \Mult0|mult_core|decoder_node[1][12]~combout\ $end
$var wire 1 -" \nPontos[11]~input_o\ $end
$var wire 1 ." \Mult0|mult_core|decoder_node[1][11]~combout\ $end
$var wire 1 /" \Mult0|mult_core|decoder_node[0][12]~combout\ $end
$var wire 1 0" \Mult0|mult_core|decoder_node[0][11]~combout\ $end
$var wire 1 1" \nPontos[10]~input_o\ $end
$var wire 1 2" \Mult0|mult_core|decoder_node[1][10]~combout\ $end
$var wire 1 3" \nPontos[9]~input_o\ $end
$var wire 1 4" \Mult0|mult_core|decoder_node[1][9]~combout\ $end
$var wire 1 5" \Mult0|mult_core|decoder_node[0][10]~combout\ $end
$var wire 1 6" \nPontos[8]~input_o\ $end
$var wire 1 7" \Mult0|mult_core|decoder_node[1][8]~combout\ $end
$var wire 1 8" \Mult0|mult_core|decoder_node[0][9]~combout\ $end
$var wire 1 9" \nPontos[7]~input_o\ $end
$var wire 1 :" \Mult0|mult_core|decoder_node[1][7]~combout\ $end
$var wire 1 ;" \Mult0|mult_core|decoder_node[0][8]~combout\ $end
$var wire 1 <" \Mult0|mult_core|decoder_node[0][7]~combout\ $end
$var wire 1 =" \nPontos[6]~input_o\ $end
$var wire 1 >" \Mult0|mult_core|decoder_node[1][6]~combout\ $end
$var wire 1 ?" \nPontos[5]~input_o\ $end
$var wire 1 @" \Mult0|mult_core|decoder_node[1][5]~combout\ $end
$var wire 1 A" \Mult0|mult_core|decoder_node[0][6]~combout\ $end
$var wire 1 B" \nPontos[4]~input_o\ $end
$var wire 1 C" \Mult0|mult_core|decoder_node[1][4]~combout\ $end
$var wire 1 D" \Mult0|mult_core|decoder_node[0][5]~combout\ $end
$var wire 1 E" \Mult0|mult_core|decoder_node[0][4]~combout\ $end
$var wire 1 F" \nPontos[3]~input_o\ $end
$var wire 1 G" \Mult0|mult_core|decoder_node[1][3]~combout\ $end
$var wire 1 H" \Mult0|mult_core|decoder_node[0][3]~combout\ $end
$var wire 1 I" \nPontos[2]~input_o\ $end
$var wire 1 J" \Mult0|mult_core|decoder_node[1][2]~combout\ $end
$var wire 1 K" \nPontos[1]~input_o\ $end
$var wire 1 L" \Mult0|mult_core|decoder_node[1][1]~combout\ $end
$var wire 1 M" \Mult0|mult_core|decoder_node[0][2]~combout\ $end
$var wire 1 N" \Mult0|mult_core|decoder_node[0][1]~combout\ $end
$var wire 1 O" \nPontos[0]~input_o\ $end
$var wire 1 P" \Mult0|mult_core|decoder_node[1][0]~combout\ $end
$var wire 1 Q" \Mult0|mult_core|padder|adder[0]|auto_generated|op_1~1\ $end
$var wire 1 R" \Mult0|mult_core|padder|adder[0]|auto_generated|op_1~3\ $end
$var wire 1 S" \Mult0|mult_core|padder|adder[0]|auto_generated|op_1~5\ $end
$var wire 1 T" \Mult0|mult_core|padder|adder[0]|auto_generated|op_1~7\ $end
$var wire 1 U" \Mult0|mult_core|padder|adder[0]|auto_generated|op_1~9\ $end
$var wire 1 V" \Mult0|mult_core|padder|adder[0]|auto_generated|op_1~11\ $end
$var wire 1 W" \Mult0|mult_core|padder|adder[0]|auto_generated|op_1~13\ $end
$var wire 1 X" \Mult0|mult_core|padder|adder[0]|auto_generated|op_1~15\ $end
$var wire 1 Y" \Mult0|mult_core|padder|adder[0]|auto_generated|op_1~17\ $end
$var wire 1 Z" \Mult0|mult_core|padder|adder[0]|auto_generated|op_1~19\ $end
$var wire 1 [" \Mult0|mult_core|padder|adder[0]|auto_generated|op_1~21\ $end
$var wire 1 \" \Mult0|mult_core|padder|adder[0]|auto_generated|op_1~23\ $end
$var wire 1 ]" \Mult0|mult_core|padder|adder[0]|auto_generated|op_1~25\ $end
$var wire 1 ^" \Mult0|mult_core|padder|adder[0]|auto_generated|op_1~27\ $end
$var wire 1 _" \Mult0|mult_core|padder|adder[0]|auto_generated|op_1~28_combout\ $end
$var wire 1 `" \Mult0|mult_core|padder|adder[0]|auto_generated|op_1~26_combout\ $end
$var wire 1 a" \Mult0|mult_core|padder|adder[0]|auto_generated|op_1~24_combout\ $end
$var wire 1 b" \s_countData[0]~15\ $end
$var wire 1 c" \s_countData[1]~16_combout\ $end
$var wire 1 d" \en_MemoryInitialize~input_o\ $end
$var wire 1 e" \s_countData[1]~17\ $end
$var wire 1 f" \s_countData[2]~18_combout\ $end
$var wire 1 g" \s_countData[2]~19\ $end
$var wire 1 h" \s_countData[3]~20_combout\ $end
$var wire 1 i" \s_countData[3]~21\ $end
$var wire 1 j" \s_countData[4]~22_combout\ $end
$var wire 1 k" \s_countData[4]~23\ $end
$var wire 1 l" \s_countData[5]~24_combout\ $end
$var wire 1 m" \s_countData[5]~25\ $end
$var wire 1 n" \s_countData[6]~26_combout\ $end
$var wire 1 o" \s_countData[6]~27\ $end
$var wire 1 p" \s_countData[7]~28_combout\ $end
$var wire 1 q" \s_countData[7]~29\ $end
$var wire 1 r" \s_countData[8]~30_combout\ $end
$var wire 1 s" \s_countData[8]~31\ $end
$var wire 1 t" \s_countData[9]~32_combout\ $end
$var wire 1 u" \s_countData[9]~33\ $end
$var wire 1 v" \s_countData[10]~34_combout\ $end
$var wire 1 w" \s_countData[10]~35\ $end
$var wire 1 x" \s_countData[11]~36_combout\ $end
$var wire 1 y" \s_countData[11]~37\ $end
$var wire 1 z" \s_countData[12]~38_combout\ $end
$var wire 1 {" \s_countData[12]~39\ $end
$var wire 1 |" \s_countData[13]~40_combout\ $end
$var wire 1 }" \Mult0|mult_core|padder|adder[0]|auto_generated|op_1~22_combout\ $end
$var wire 1 ~" \Mult0|mult_core|padder|adder[0]|auto_generated|op_1~20_combout\ $end
$var wire 1 !# \Mult0|mult_core|padder|adder[0]|auto_generated|op_1~18_combout\ $end
$var wire 1 "# \Mult0|mult_core|padder|adder[0]|auto_generated|op_1~16_combout\ $end
$var wire 1 ## \Mult0|mult_core|padder|adder[0]|auto_generated|op_1~14_combout\ $end
$var wire 1 $# \Mult0|mult_core|padder|adder[0]|auto_generated|op_1~12_combout\ $end
$var wire 1 %# \Mult0|mult_core|padder|adder[0]|auto_generated|op_1~10_combout\ $end
$var wire 1 &# \Mult0|mult_core|padder|adder[0]|auto_generated|op_1~8_combout\ $end
$var wire 1 '# \Mult0|mult_core|padder|adder[0]|auto_generated|op_1~6_combout\ $end
$var wire 1 (# \Mult0|mult_core|padder|adder[0]|auto_generated|op_1~4_combout\ $end
$var wire 1 )# \Mult0|mult_core|padder|adder[0]|auto_generated|op_1~2_combout\ $end
$var wire 1 *# \Mult0|mult_core|padder|adder[0]|auto_generated|op_1~0_combout\ $end
$var wire 1 +# \Mult0|mult_core|decoder_node[0][0]~combout\ $end
$var wire 1 ,# \LessThan0~1_cout\ $end
$var wire 1 -# \LessThan0~3_cout\ $end
$var wire 1 .# \LessThan0~5_cout\ $end
$var wire 1 /# \LessThan0~7_cout\ $end
$var wire 1 0# \LessThan0~9_cout\ $end
$var wire 1 1# \LessThan0~11_cout\ $end
$var wire 1 2# \LessThan0~13_cout\ $end
$var wire 1 3# \LessThan0~15_cout\ $end
$var wire 1 4# \LessThan0~17_cout\ $end
$var wire 1 5# \LessThan0~19_cout\ $end
$var wire 1 6# \LessThan0~21_cout\ $end
$var wire 1 7# \LessThan0~23_cout\ $end
$var wire 1 8# \LessThan0~25_cout\ $end
$var wire 1 9# \LessThan0~26_combout\ $end
$var wire 1 :# \LessThan0~28_combout\ $end
$var wire 1 ;# \s_addr_Rom[0]~15_combout\ $end
$var wire 1 <# \s_addr_Rom[0]~feeder_combout\ $end
$var wire 1 =# \s_addr_Rom[0]~17_combout\ $end
$var wire 1 ># \initAddr[1]~input_o\ $end
$var wire 1 ?# \s_addr_Rom[0]~16\ $end
$var wire 1 @# \s_addr_Rom[1]~18_combout\ $end
$var wire 1 A# \initAddr[2]~input_o\ $end
$var wire 1 B# \s_addr_Rom[1]~19\ $end
$var wire 1 C# \s_addr_Rom[2]~20_combout\ $end
$var wire 1 D# \initAddr[3]~input_o\ $end
$var wire 1 E# \s_addr_Rom[2]~21\ $end
$var wire 1 F# \s_addr_Rom[3]~22_combout\ $end
$var wire 1 G# \initAddr[4]~input_o\ $end
$var wire 1 H# \s_addr_Rom[3]~23\ $end
$var wire 1 I# \s_addr_Rom[4]~24_combout\ $end
$var wire 1 J# \initAddr[5]~input_o\ $end
$var wire 1 K# \s_addr_Rom[4]~25\ $end
$var wire 1 L# \s_addr_Rom[5]~26_combout\ $end
$var wire 1 M# \initAddr[6]~input_o\ $end
$var wire 1 N# \s_addr_Rom[5]~27\ $end
$var wire 1 O# \s_addr_Rom[6]~28_combout\ $end
$var wire 1 P# \initAddr[7]~input_o\ $end
$var wire 1 Q# \s_addr_Rom[6]~29\ $end
$var wire 1 R# \s_addr_Rom[7]~30_combout\ $end
$var wire 1 S# \initAddr[8]~input_o\ $end
$var wire 1 T# \s_addr_Rom[7]~31\ $end
$var wire 1 U# \s_addr_Rom[8]~32_combout\ $end
$var wire 1 V# \initAddr[9]~input_o\ $end
$var wire 1 W# \s_addr_Rom[8]~33\ $end
$var wire 1 X# \s_addr_Rom[9]~34_combout\ $end
$var wire 1 Y# \initAddr[10]~input_o\ $end
$var wire 1 Z# \s_addr_Rom[9]~35\ $end
$var wire 1 [# \s_addr_Rom[10]~36_combout\ $end
$var wire 1 \# \initAddr[11]~input_o\ $end
$var wire 1 ]# \s_addr_Rom[10]~37\ $end
$var wire 1 ^# \s_addr_Rom[11]~38_combout\ $end
$var wire 1 _# \initAddr[12]~input_o\ $end
$var wire 1 `# \s_addr_Rom[11]~39\ $end
$var wire 1 a# \s_addr_Rom[12]~40_combout\ $end
$var wire 1 b# \initAddr[13]~input_o\ $end
$var wire 1 c# \s_addr_Rom[12]~41\ $end
$var wire 1 d# \s_addr_Rom[13]~42_combout\ $end
$var wire 1 e# \initAddr[14]~input_o\ $end
$var wire 1 f# \s_addr_Rom[13]~43\ $end
$var wire 1 g# \s_addr_Rom[14]~44_combout\ $end
$var wire 1 h# \s_addr_Ram[0]~feeder_combout\ $end
$var wire 1 i# \s_addr_Ram[1]~feeder_combout\ $end
$var wire 1 j# \s_addr_Ram[2]~feeder_combout\ $end
$var wire 1 k# \s_addr_Ram[3]~feeder_combout\ $end
$var wire 1 l# \s_addr_Ram[4]~feeder_combout\ $end
$var wire 1 m# \s_addr_Ram[5]~feeder_combout\ $end
$var wire 1 n# \s_addr_Ram[6]~feeder_combout\ $end
$var wire 1 o# \s_addr_Ram[7]~feeder_combout\ $end
$var wire 1 p# \s_addr_Ram[8]~feeder_combout\ $end
$var wire 1 q# \s_addr_Ram[9]~feeder_combout\ $end
$var wire 1 r# \s_addr_Ram[10]~feeder_combout\ $end
$var wire 1 s# \s_addr_Ram[11]~feeder_combout\ $end
$var wire 1 t# \s_addr_Ram[12]~feeder_combout\ $end
$var wire 1 u# \s_addr_Ram[13]~feeder_combout\ $end
$var wire 1 v# \s_blockState[0]~feeder_combout\ $end
$var wire 1 w# s_blockState [3] $end
$var wire 1 x# s_blockState [2] $end
$var wire 1 y# s_blockState [1] $end
$var wire 1 z# s_blockState [0] $end
$var wire 1 {# s_addr_Ram [14] $end
$var wire 1 |# s_addr_Ram [13] $end
$var wire 1 }# s_addr_Ram [12] $end
$var wire 1 ~# s_addr_Ram [11] $end
$var wire 1 !$ s_addr_Ram [10] $end
$var wire 1 "$ s_addr_Ram [9] $end
$var wire 1 #$ s_addr_Ram [8] $end
$var wire 1 $$ s_addr_Ram [7] $end
$var wire 1 %$ s_addr_Ram [6] $end
$var wire 1 &$ s_addr_Ram [5] $end
$var wire 1 '$ s_addr_Ram [4] $end
$var wire 1 ($ s_addr_Ram [3] $end
$var wire 1 )$ s_addr_Ram [2] $end
$var wire 1 *$ s_addr_Ram [1] $end
$var wire 1 +$ s_addr_Ram [0] $end
$var wire 1 ,$ s_countData [13] $end
$var wire 1 -$ s_countData [12] $end
$var wire 1 .$ s_countData [11] $end
$var wire 1 /$ s_countData [10] $end
$var wire 1 0$ s_countData [9] $end
$var wire 1 1$ s_countData [8] $end
$var wire 1 2$ s_countData [7] $end
$var wire 1 3$ s_countData [6] $end
$var wire 1 4$ s_countData [5] $end
$var wire 1 5$ s_countData [4] $end
$var wire 1 6$ s_countData [3] $end
$var wire 1 7$ s_countData [2] $end
$var wire 1 8$ s_countData [1] $end
$var wire 1 9$ s_countData [0] $end
$var wire 1 :$ s_addr_Rom [14] $end
$var wire 1 ;$ s_addr_Rom [13] $end
$var wire 1 <$ s_addr_Rom [12] $end
$var wire 1 =$ s_addr_Rom [11] $end
$var wire 1 >$ s_addr_Rom [10] $end
$var wire 1 ?$ s_addr_Rom [9] $end
$var wire 1 @$ s_addr_Rom [8] $end
$var wire 1 A$ s_addr_Rom [7] $end
$var wire 1 B$ s_addr_Rom [6] $end
$var wire 1 C$ s_addr_Rom [5] $end
$var wire 1 D$ s_addr_Rom [4] $end
$var wire 1 E$ s_addr_Rom [3] $end
$var wire 1 F$ s_addr_Rom [2] $end
$var wire 1 G$ s_addr_Rom [1] $end
$var wire 1 H$ s_addr_Rom [0] $end
$var wire 1 I$ ALT_INV_s_blockState [0] $end
$upscope $end
$upscope $end
$enddefinitions $end
#0
$dumpvars
0?
1@
0b
0e
1f
xg
1h
1i
1j
1k
1l
1m
0n
0o
1~
0\!
0]!
0^!
0_!
0`!
0a!
0b!
0c!
0d!
0e!
0f!
0g!
0h!
0i!
0j!
0k!
0l!
0m!
0n!
0o!
0p!
0q!
0r!
0s!
0t!
0u!
0v!
0w!
0x!
0y!
1z!
0{!
0|!
0}!
0~!
0!"
0""
1#"
0$"
0%"
0&"
0'"
0("
0)"
0*"
0+"
0,"
0-"
0."
0/"
00"
01"
02"
03"
04"
05"
06"
07"
08"
09"
0:"
0;"
0<"
0="
0>"
0?"
0@"
0A"
0B"
0C"
0D"
0E"
0F"
0G"
0H"
0I"
0J"
1K"
0L"
0M"
1N"
1O"
0P"
0Q"
1R"
0S"
1T"
0U"
1V"
0W"
1X"
0Y"
1Z"
0["
1\"
0]"
1^"
0_"
0`"
0a"
0b"
0c"
1d"
1e"
0f"
0g"
0h"
1i"
0j"
0k"
0l"
1m"
0n"
0o"
0p"
1q"
0r"
0s"
0t"
1u"
0v"
0w"
0x"
1y"
0z"
0{"
0|"
0}"
0~"
0!#
0"#
0##
0$#
0%#
0&#
0'#
0(#
0)#
1*#
1+#
1,#
0-#
1.#
0/#
10#
01#
12#
03#
14#
05#
16#
07#
18#
19#
0:#
0;#
0<#
1=#
0>#
0?#
0@#
0A#
1B#
0C#
0D#
0E#
0F#
0G#
1H#
0I#
0J#
0K#
0L#
0M#
1N#
0O#
0P#
0Q#
0R#
0S#
1T#
0U#
0V#
0W#
0X#
0Y#
1Z#
0[#
0\#
0]#
0^#
0_#
1`#
0a#
0b#
0c#
0d#
0e#
1f#
0g#
0h#
0i#
0j#
0k#
0l#
0m#
0n#
0o#
0p#
0q#
0r#
0s#
0t#
0u#
0v#
0A
0B
0C
0D
0E
0F
0G
0H
0I
0J
0K
0L
0M
0N
0O
0T
0U
0V
0W
0X
0Y
0Z
0[
0\
0]
0^
0_
1`
1a
0c
0d
0p
0q
0r
0s
0t
0u
0v
0w
0x
0y
0z
0{
1|
1}
0!!
0"!
0#!
0$!
0%!
0&!
0'!
0(!
0)!
0*!
0+!
0,!
0-!
0.!
0/!
00!
01!
02!
03!
04!
05!
06!
07!
08!
09!
0:!
0;!
0<!
0=!
0>!
0?!
0@!
0A!
0B!
0C!
0D!
0E!
0F!
0G!
0H!
0I!
0J!
0K!
0L!
0M!
0N!
0O!
0P!
0Q!
0R!
1S!
xw#
xx#
0y#
0z#
x{#
0|#
0}#
0~#
0!$
0"$
0#$
0$$
0%$
0&$
0'$
0($
0)$
0*$
0+$
0,$
0-$
0.$
0/$
00$
01$
02$
03$
04$
05$
06$
07$
08$
09$
0:$
0;$
0<$
0=$
0>$
0?$
0@$
0A$
0B$
0C$
0D$
0E$
0F$
0G$
0H$
1I$
1T!
1U!
1V!
0W!
1X!
1Y!
1Z!
0[!
0!
0"
0#
0$
0%
0&
0'
0(
0)
0*
0+
0,
0-
0.
0/
00
01
02
03
04
05
06
07
08
09
0:
0;
0<
0=
0>
0P
0Q
0R
1S
$end
#5000
1?
1n
1~!
1W!
1!"
#10000
0?
1b
0n
1o
1$"
0~!
1[!
0W!
0!"
1%"
#15000
1?
1d
1n
11!
1'"
1~!
1W!
1L"
0N"
1P"
0+#
0,#
1)#
1!"
19$
0#"
1b"
1;#
1h#
1<#
1c"
#20000
0?
0n
0~!
0W!
0!"
#25000
1?
1n
1~!
1W!
1!"
18$
09$
1H$
1+$
1#"
0b"
0;#
0h#
0c"
0e"
1-#
1@#
1i#
1f"
0<#
1c"
1e"
1k!
1\!
0f"
1O!
1@!
1/
1>
#30000
0?
0n
0~!
0W!
0!"
#35000
1?
1n
1~!
1W!
1!"
19$
0H$
1G$
0+$
1*$
0#"
1b"
1;#
1h#
1<#
0c"
0e"
1l!
0k!
1]!
0\!
1f"
1N!
0O!
1?!
0@!
0/
1.
0>
1=
#40000
0?
0n
0~!
0W!
0!"
#45000
1?
1n
1~!
1W!
1!"
08$
17$
09$
1H$
1+$
1#"
0b"
0;#
0h#
0f"
1g"
0.#
1C#
1j#
1c"
1e"
0-#
0@#
0i#
1.#
1f"
0g"
1/#
1h"
0<#
0c"
1k!
1\!
00#
0h"
0/#
1O!
1@!
1/
1>
10#
11#
02#
01#
12#
13#
04#
03#
14#
15#
06#
05#
16#
17#
08#
07#
18#
09#
1:#
0=#
19#
0:#
1=#
1v#
0v#
#50000
0?
0n
0~!
0W!
0!"
#55000
1?
1n
1~!
1W!
1!"
19$
0H$
0G$
1F$
0+$
0*$
1)$
0#"
1b"
1;#
1h#
1<#
1c"
1m!
0l!
0k!
1^!
0]!
0\!
1M!
0N!
0O!
1>!
0?!
0@!
0/
0.
1-
0>
0=
1<
#60000
0?
0n
0~!
0W!
0!"
#65000
1?
1n
1~!
1W!
1!"
18$
09$
1H$
1+$
1#"
0b"
0;#
0h#
0c"
0e"
1-#
1@#
1i#
0.#
0f"
1g"
0<#
1c"
1e"
1k!
1\!
1f"
0g"
1h"
1/#
1O!
1@!
1/
1>
00#
0h"
11#
02#
13#
04#
15#
06#
17#
08#
09#
1:#
0=#
1v#
#70000
0?
0n
0~!
0W!
0!"
#75000
1?
1n
1~!
1W!
1!"
08$
07$
1z#
1y#
0I$
0f"
1.#
0C#
0j#
0c"
0-#
0@#
0i#
0/#
1{!
0z!
10#
1R!
0S!
1R
01#
0S
12#
03#
14#
05#
16#
07#
18#
19#
0:#
1=#
0v#
#80000
0?
0n
0~!
0W!
0!"
#85000
1?
1n
1~!
1W!
1!"
19$
0H$
0F$
0+$
0)$
0z#
0y#
1I$
0#"
1b"
1;#
1h#
1<#
1c"
0{!
0m!
0k!
0^!
0\!
1z!
0R!
0M!
0O!
0>!
0@!
1S!
0R
0/
0-
0>
0<
1S
#90000
0?
0n
0~!
0W!
0!"
#95000
1?
1n
1~!
1W!
1!"
18$
09$
1H$
1+$
1#"
0b"
0;#
0h#
0c"
0e"
1-#
1@#
1i#
1f"
0<#
1c"
1e"
1k!
1\!
0f"
1O!
1@!
1/
1>
#100000
0?
0n
0~!
0W!
0!"
#105000
1?
1n
1~!
1W!
1!"
19$
0H$
1G$
0+$
1*$
0#"
1b"
1;#
1h#
1<#
0c"
0e"
1l!
0k!
1]!
0\!
1f"
1N!
0O!
1?!
0@!
0/
1.
0>
1=
#110000
0?
0n
0~!
0W!
0!"
#115000
1?
1n
1~!
1W!
1!"
08$
17$
09$
1H$
1+$
1#"
0b"
0;#
0h#
0f"
1g"
0.#
1C#
1j#
1c"
1e"
0-#
0@#
0i#
1.#
1f"
0g"
1/#
1h"
0<#
0c"
1k!
1\!
00#
0h"
0/#
1O!
1@!
1/
1>
10#
11#
02#
01#
12#
13#
04#
03#
14#
15#
06#
05#
16#
17#
08#
07#
18#
09#
1:#
0=#
19#
0:#
1=#
1v#
0v#
#120000
0?
0n
0~!
0W!
0!"
#125000
1?
1n
1~!
1W!
1!"
19$
0H$
0G$
1F$
0+$
0*$
1)$
0#"
1b"
1;#
1h#
1<#
1c"
1m!
0l!
0k!
1^!
0]!
0\!
1M!
0N!
0O!
1>!
0?!
0@!
0/
0.
1-
0>
0=
1<
